POST /_aliases
{
  "actions": [
    {
      "add": {
        "index": "feeling_specific_v1",
        "alias": "feeling_specific"
      }
    }
  ]
}

POST /_aliases
{
    "actions" : [
        { "remove" : { "index" : "feeling_specific_v1", "alias" : "feeling_specific" } }
    ]
}