<?xml version="1.0" encoding="UTF-8"?>
<svg width="431px" height="431px" viewBox="0 0 431 431" version="1.1" xmlns="http://www.w3.org/2000/svg" xmlns:xlink="http://www.w3.org/1999/xlink">
    <!-- Generator: Sketch 51.1 (57501) - http://www.bohemiancoding.com/sketch -->
    <title>Icon-NeurabootApp</title>
    <desc>Created with Sketch.</desc>
    <defs>
        <rect id="path-1" x="0" y="0" width="343" height="343" rx="80"></rect>
        <filter x="-22.4%" y="-16.0%" width="144.9%" height="144.9%" filterUnits="objectBoundingBox" id="filter-2">
            <feOffset dx="0" dy="22" in="SourceAlpha" result="shadowOffsetOuter1"></feOffset>
            <feGaussianBlur stdDeviation="22" in="shadowOffsetOuter1" result="shadowBlurOuter1"></feGaussianBlur>
            <feColorMatrix values="0 0 0 0 0   0 0 0 0 0   0 0 0 0 0  0 0 0 0.12 0" type="matrix" in="shadowBlurOuter1"></feColorMatrix>
        </filter>
        <linearGradient x1="61.6071429%" y1="0%" x2="55.1506696%" y2="100%" id="linearGradient-3">
            <stop stop-color="#4AD4B6" offset="0%"></stop>
            <stop stop-color="#2DC6CF" offset="100%"></stop>
        </linearGradient>
        <rect id="path-4" x="11" y="11" width="321" height="321" rx="70"></rect>
        <filter x="-24.0%" y="-17.1%" width="148.0%" height="148.0%" filterUnits="objectBoundingBox" id="filter-5">
            <feOffset dx="0" dy="22" in="SourceAlpha" result="shadowOffsetOuter1"></feOffset>
            <feGaussianBlur stdDeviation="22" in="shadowOffsetOuter1" result="shadowBlurOuter1"></feGaussianBlur>
            <feColorMatrix values="0 0 0 0 0   0 0 0 0 0   0 0 0 0 0  0 0 0 0.12 0" type="matrix" in="shadowBlurOuter1"></feColorMatrix>
        </filter>
    </defs>
    <g id="Website" stroke="none" stroke-width="1" fill="none" fill-rule="evenodd">
        <g id="Neuraboot-Desktop-Home" transform="translate(-1223.000000, -1064.000000)">
            <g id="Image" transform="translate(1076.000000, 1038.000000)">
                <g id="Icon-NeurabootApp" transform="translate(191.000000, 48.000000)">
                    <g id="Rectangle-3">
                        <use fill="black" fill-opacity="1" filter="url(#filter-2)" xlink:href="#path-1"></use>
                        <use fill="#FFFFFF" fill-rule="evenodd" xlink:href="#path-1"></use>
                    </g>
                    <g id="Rectangle-3-Copy">
                        <use fill="black" fill-opacity="1" filter="url(#filter-5)" xlink:href="#path-4"></use>
                        <use fill="url(#linearGradient-3)" fill-rule="evenodd" xlink:href="#path-4"></use>
                    </g>
                    <g id="neuraboot-logo-V2" transform="translate(40.000000, 70.000000)" fill-rule="nonzero">
                        <path d="M61.6700288,85.3319739 C72.7255043,90.7013115 81.7838617,93.6685771 89.9149856,96 C100.399856,87.8046952 114.09438,78.690951 130,67.1751348 C123.152738,62.2296922 115.948847,56.7897054 108.388329,50.8551743 C83.3530259,31.0027549 80.6426513,22.0303091 74.1520173,14.8947419 C58.8883285,-1.77846442 37.7759366,40.116499 36.1354467,45.9803809 C34.1383285,52.9040005 32.426513,60.1102168 31,67.4577315 C38.917147,72.7564199 48.9740634,79.1148461 61.6700288,85.3319739 Z" id="Shape" fill="#D2F8F6"></path>
                        <path d="M198.329971,85.3319739 C187.274496,90.7013115 178.216138,93.6685771 170.085014,96 C159.600144,87.8046952 145.90562,78.690951 130,67.1751348 C136.847262,62.2296922 144.051153,56.7897054 151.611671,50.8551743 C176.646974,31.0027549 179.357349,22.0303091 185.847983,14.8947419 C201.111671,-1.77846442 222.224063,40.116499 223.864553,45.9803809 C225.861671,52.9040005 227.573487,60.1102168 229,67.4577315 C221.154179,72.7564199 211.097262,79.1854953 198.329971,85.3319739 Z" id="Shape" fill="#ECFFFF"></path>
                        <path d="M258.304551,65.3092241 C257.587661,58.9217028 251.207346,53.7407133 243.966762,58.1410057 C240.454004,60.2701795 235.220711,64.3865821 227.83675,69.4256267 C236.65449,115.912587 232.281465,167.36762 200.164818,190.504642 C235.937601,165.096501 259.164818,125.351924 259.164818,80.3553854 C259.164818,75.3163408 258.878062,70.2772962 258.304551,65.3092241 Z" id="Shape" fill="#C2F9F7" transform="translate(229.664818, 123.504642) rotate(1.000000) translate(-229.664818, -123.504642) "></path>
                        <path d="M0.860267315,63.8045825 C1.57715674,57.4170612 7.95747266,52.2360717 15.1980559,56.6363642 C18.7108141,58.7655379 23.9441069,62.8819405 31.328068,67.9209851 C22.5103281,114.407946 26.8833536,165.862978 59,189 C23.2272175,163.662832 0,123.847283 0,78.8507438 C0,73.8116992 0.286755772,68.7726546 0.860267315,63.8045825 Z" id="Shape" fill="#CDF2F1"></path>
                        <circle id="Oval" fill="#8FFFF9" cx="20" cy="31" r="9"></circle>
                        <circle id="Oval" fill="#8FFFF9" cx="130.5" cy="31.5" r="13.5"></circle>
                        <ellipse id="Oval" fill="#ECFFFF" cx="159.5" cy="5" rx="5.5" ry="5"></ellipse>
                        <ellipse id="Oval" fill="#C2F9F7" cx="245.5" cy="31" rx="5.5" ry="5"></ellipse>
                        <path d="M131.674087,80.8947368 C146.349065,81.5964912 155.609973,87.5614035 159.171861,98.5789474 C162.591273,97.6666667 166.224399,96.754386 170,95.7017544 C159.52805,87.5614035 145.921638,78.5789474 130.106857,67.1403509 C130.178094,67.0701754 130.249332,67.0701754 130.32057,67 C114.363313,78.5087719 100.543188,87.6315789 90,95.8421053 C94.2030276,97.0350877 98.1923419,98.0175439 101.967943,99 C106.242208,86.8596491 116.927872,80.122807 131.674087,80.8947368 Z" id="Shape" fill="#FFFFFF"></path>
                        <path d="M228.933585,67 C220.952115,72.4347826 210.648763,78.9422197 197.733293,85.1636156 C186.486676,90.5983982 177.271705,93.6018307 169,95.9616705 C171.104206,97.6064073 173.135853,99.2511442 174.949823,100.824371 C190.114617,113.910755 199.76494,144.517162 193.379764,166.542334 C191.275558,172.406178 188.735999,177.62643 185.761087,182.203089 C190.404852,184.70595 193.960234,187.995423 196.572352,192 C233.069438,170.33238 238.293673,115.913043 228.933585,67 Z" id="Shape" fill="#E9FFFE"></path>
                        <path d="M73.4982005,181.472477 C70.5693097,176.922018 68.069037,171.802752 65.9973825,165.972477 C59.7109827,144.073394 69.2120188,113.642202 84.1422184,100.630734 C85.9281274,99.0665138 87.9283455,97.4311927 90,95.7958716 C81.9276911,93.5206422 72.7838369,90.4633028 61.7112008,85.059633 C48.9955285,78.8738532 38.8515652,72.4036697 30.9935654,67 C21.8497111,115.419725 26.8502564,169.31422 62.4255645,191 C65.1401462,187.018349 68.7834006,183.889908 73.4982005,181.472477 Z" id="Shape" fill="#E9FFFE"></path>
                        <g id="Group" transform="translate(63.000000, 95.000000)" fill="#FFFFFF">
                            <path d="M98.2184999,16.3569207 C97.997138,28.8165866 93.7912613,40.1896538 88.4785751,51.2729614 C84.9367842,58.661833 84.9367842,65.2538656 91.5038548,71.0490591 C97.997138,78.1481711 106.704041,81.770167 115.632305,84.3055642 C119.100309,85.319723 122.125588,86.5512016 124.855719,88 C128.323722,82.7843259 130.758703,77.4237719 132.455812,72.4254175 C139.096669,49.6792831 129.135383,18.6749981 113.56626,5.27361315 C111.869152,3.82481478 109.581746,2.08625674 107.663276,0.56501845 C103.604974,1.50673739 99.8418207,2.37601641 96.3738172,3.31773535 C97.6282014,7.08461111 98.2922872,11.4310062 98.2184999,16.3569207 Z" id="Shape"></path>
                            <path d="M2.74893529,70.8834799 C4.42297177,75.7424281 6.89763438,81.1015622 10.3184915,86.317786 C12.4292332,85.174504 14.8311116,84.2455875 17.3785584,83.4595811 C26.5493669,80.4584661 35.8657438,77.3858959 42.6346739,69.8116531 C49.1124673,64.3810639 49.9130934,58.0930132 46.1283153,50.5187704 C40.3055797,38.8715857 36.5208016,26.7242152 37.3214277,13.5050178 C37.5397803,9.64644131 38.3404065,6.14514039 39.5049536,3.00111508 C35.7201754,1.92928826 31.6442606,1.00037169 27.2044247,0 C25.3120356,1.50055754 23.0557256,3.21548044 21.3816891,4.64458285 C6.09700824,17.7923251 -3.72885803,48.3751168 2.74893529,70.8834799 Z" id="Shape"></path>
                        </g>
                    </g>
                </g>
            </g>
        </g>
    </g>
</svg>