<?xml version="1.0" encoding="UTF-8"?>
<svg width="320px" height="568px" viewBox="0 0 320 568" version="1.1" xmlns="http://www.w3.org/2000/svg" xmlns:xlink="http://www.w3.org/1999/xlink">
    <!-- Generator: Sketch 50.2 (55047) - http://www.bohemiancoding.com/sketch -->
    <title>Neuraboot-Assets-Background-HowDoIFeel-Angry</title>
    <desc>Created with Sketch.</desc>
    <defs>
        <linearGradient x1="50%" y1="0%" x2="50%" y2="100%" id="linearGradient-1">
            <stop stop-color="#000000" offset="0%"></stop>
            <stop stop-color="#746467" offset="100%"></stop>
        </linearGradient>
        <linearGradient x1="50%" y1="0%" x2="50%" y2="11.6970716%" id="linearGradient-2">
            <stop stop-color="#5D537B" offset="0%"></stop>
            <stop stop-color="#262347" offset="100%"></stop>
        </linearGradient>
        <filter x="-21.3%" y="-54.7%" width="142.7%" height="209.3%" filterUnits="objectBoundingBox" id="filter-3">
            <feGaussianBlur stdDeviation="24.0538833" in="SourceGraphic"></feGaussianBlur>
        </filter>
        <linearGradient x1="3.31734602%" y1="2.77389597%" x2="100%" y2="84.9710806%" id="linearGradient-4">
            <stop stop-color="#E98560" offset="0%"></stop>
            <stop stop-color="#842A5D" offset="100%"></stop>
        </linearGradient>
        <path d="M125.970735,48.0731995 L231.91772,114.393974 C221.03051,121.270189 211.144879,127.446857 202.260828,132.923978 C188.934752,141.13966 134.190043,151.007363 118.768833,128.835428 C103.347624,106.663494 115.331505,85.5648472 122.061185,73.9691265 C126.185908,66.861935 126.990187,58.5985179 124.474024,49.1788752 L124.474046,49.1788694 C124.331521,48.6453047 124.648521,48.0972257 125.182085,47.9547006 C125.450027,47.8831284 125.735658,47.9260461 125.970735,48.0731995 Z" id="path-5"></path>
        <filter x="-29.5%" y="-75.2%" width="158.9%" height="250.3%" filterUnits="objectBoundingBox" id="filter-6">
            <feGaussianBlur stdDeviation="24.0538833" in="SourceGraphic"></feGaussianBlur>
        </filter>
        <filter x="-92.9%" y="-160.0%" width="285.8%" height="419.9%" filterUnits="objectBoundingBox" id="filter-7">
            <feGaussianBlur stdDeviation="28.7930836" in="SourceGraphic"></feGaussianBlur>
        </filter>
        <linearGradient x1="50%" y1="0%" x2="50%" y2="100%" id="linearGradient-8">
            <stop stop-color="#4A3A69" offset="0%"></stop>
            <stop stop-color="#241F2F" offset="100%"></stop>
        </linearGradient>
        <path d="M404.617729,129.939115 L247.406418,15.4845215 C246.513434,14.8344019 245.262501,15.0312827 244.612382,15.9242669 C244.468047,16.1225205 244.361404,16.3456281 244.297772,16.5824572 C239.859136,33.1026243 239.998713,48.6593431 244.716505,63.2526135 C252.189771,86.3692287 279.606554,86.2113923 301.945678,116.866746 C324.284802,147.522099 297.03404,172.877655 322.844008,202.788254 C348.653976,232.698853 377.590277,235.172794 391.814267,250.19532 C401.296928,260.210338 405.564748,267.556944 404.617729,272.23514 L404.617729,129.939115 Z" id="path-9"></path>
        <filter x="-21.3%" y="-90.0%" width="142.7%" height="280.0%" filterUnits="objectBoundingBox" id="filter-10">
            <feGaussianBlur stdDeviation="28.7930836" in="SourceGraphic"></feGaussianBlur>
        </filter>
        <filter x="-21.3%" y="-43.0%" width="142.7%" height="185.9%" filterUnits="objectBoundingBox" id="filter-11">
            <feGaussianBlur stdDeviation="28.7930836" in="SourceGraphic"></feGaussianBlur>
        </filter>
        <filter x="-92.9%" y="-187.8%" width="285.8%" height="475.6%" filterUnits="objectBoundingBox" id="filter-12">
            <feGaussianBlur stdDeviation="28.7930836" in="SourceGraphic"></feGaussianBlur>
        </filter>
        <filter x="-92.9%" y="-187.8%" width="285.8%" height="475.6%" filterUnits="objectBoundingBox" id="filter-13">
            <feGaussianBlur stdDeviation="28.7930836" in="SourceGraphic"></feGaussianBlur>
        </filter>
        <filter x="-29.5%" y="-75.2%" width="158.9%" height="250.3%" filterUnits="objectBoundingBox" id="filter-14">
            <feGaussianBlur stdDeviation="24.0538833" in="SourceGraphic"></feGaussianBlur>
        </filter>
        <filter x="-29.5%" y="-75.2%" width="158.9%" height="250.3%" filterUnits="objectBoundingBox" id="filter-15">
            <feGaussianBlur stdDeviation="24.0538833" in="SourceGraphic"></feGaussianBlur>
        </filter>
    </defs>
    <g id="How-Do-I-Feel" stroke="none" stroke-width="1" fill="none" fill-rule="evenodd">
        <g id="How-Do-I-Feel:-Step-2.3:-Angry-Slider">
            <g id="Neuraboot-Assets-Background-HowDoIFeel-Angry" transform="translate(-104.000000, 0.000000)">
                <rect id="Rectangle" fill="url(#linearGradient-1)" x="104" y="0" width="320" height="568"></rect>
                <g id="Group-5" opacity="0.149999991" transform="translate(18.000000, 265.000000)">
                    <path d="M85.2583928,82.6676708 L170.429568,23.3415421 C171.416323,22.6542158 172.718157,22.6225371 173.737175,23.261055 L245.087129,67.9690016 L309.61297,19.7297883 C310.640267,18.9617861 312.042176,18.9318408 313.10133,19.6552757 L405.355469,82.6676708 L405.355469,301.098172 L85.2583928,301.098172 L85.2583928,82.6676708 Z" id="Line-6" fill="url(#linearGradient-2)"></path>
                    <ellipse id="Oval-2-Copy-11" fill="#BBA4CE" opacity="0.400000006" filter="url(#filter-3)" cx="245" cy="66" rx="169" ry="66"></ellipse>
                    <path d="M85.171875,71.9324512 L122.487477,47.7892463 C123.466308,47.1559423 124.7234,47.1470721 125.711071,47.7665001 L232.111829,114.49686 L357.853234,33.4765196 C358.83015,32.8470526 360.082734,32.8384344 361.068219,33.4543992 L404.754521,60.7599661 L404.754521,300.763793 L85.171875,300.763793 L85.171875,71.9324512 Z" id="Line-3" fill="#3E2A5B"></path>
                    <path d="M407,61.8397035 L361.041841,33.0392787 C360.105878,32.4527421 358.871648,32.7360079 358.285112,33.6719705 C358.254124,33.7214196 358.225315,33.7722012 358.198768,33.8241696 C356.137998,37.8583132 356.734189,43.2155521 359.987339,49.895886 C365.643044,61.5098597 377.859665,61.8397035 380.540575,71.4956946 C383.221486,81.1516858 379.21252,83.4723725 379.21252,92.0557513 C379.21252,100.63913 386.420723,101.279597 387.843019,112.273564 C389.265316,123.267531 383.774533,134.063095 389.265316,141.529221 C392.925838,146.506638 398.601383,150.034065 406.291952,152.111503 L407,61.8397035 Z" id="Line" fill="#E4876A"></path>
                    <g id="Line-4">
                        <use fill-opacity="0.699999988" fill="url(#linearGradient-4)" xlink:href="#path-5"></use>
                        <use fill="#D97E6D" xlink:href="#path-5"></use>
                    </g>
                    <ellipse id="Oval-2-Copy-10" fill="#BBA4CE" opacity="0.100000001" filter="url(#filter-6)" cx="122.5" cy="62" rx="122.5" ry="48"></ellipse>
                    <ellipse id="Oval-2-Copy-16" fill="#A16F8F" opacity="0.800000012" filter="url(#filter-7)" cx="359.5" cy="100" rx="46.5" ry="27"></ellipse>
                    <path d="M85.5576975,133.250173 L243.02882,16.473835 C244.431949,15.4333124 246.348009,15.4236483 247.761563,16.4499644 L405.140343,130.715436 L405,345 L85.4173541,345 L85.5576975,133.250173 Z" id="Line-2" fill="url(#linearGradient-8)"></path>
                    <g id="Line">
                        <use fill-opacity="0.699999988" fill="url(#linearGradient-4)" xlink:href="#path-9"></use>
                        <use fill-opacity="0.400000006" fill="#EB8665" xlink:href="#path-9"></use>
                    </g>
                    <ellipse id="Oval-2-Copy-12" fill="#A16F8F" opacity="0.600000024" filter="url(#filter-10)" cx="414.5" cy="132" rx="202.5" ry="48"></ellipse>
                    <ellipse id="Oval-2-Copy-13" fill="#A16F8F" opacity="0.200000003" filter="url(#filter-11)" cx="385.5" cy="344.5" rx="202.5" ry="100.5"></ellipse>
                    <ellipse id="Oval-2-Copy-14" fill="#A16F8F" opacity="0.200000003" filter="url(#filter-12)" cx="118.5" cy="64" rx="46.5" ry="23"></ellipse>
                    <ellipse id="Oval-2-Copy-15" fill="#A16F8F" opacity="0.200000003" filter="url(#filter-13)" cx="391.5" cy="92" rx="46.5" ry="23"></ellipse>
                </g>
                <g id="-Dots" transform="translate(0.000000, 20.000000)">
                    <ellipse id="Oval-2-Copy-8" fill-opacity="0.200000018" fill="#BBA4CE" opacity="0.200000018" filter="url(#filter-14)" cx="122.5" cy="92" rx="122.5" ry="48"></ellipse>
                    <ellipse id="Oval-2-Copy-9" fill="#BBA4CE" opacity="0.0399999991" filter="url(#filter-15)" cx="371.5" cy="150" rx="122.5" ry="48"></ellipse>
                    <circle id="Oval-2" fill="#D8D8D8" cx="125" cy="37" r="1"></circle>
                    <circle id="Oval-2-Copy" fill="#D8D8D8" opacity="0.200000003" cx="154" cy="22" r="1"></circle>
                    <circle id="Oval-2-Copy-2" fill-opacity="0.200000018" fill="#D8D8D8" cx="173" cy="45" r="1"></circle>
                    <circle id="Oval-2-Copy-3" fill-opacity="0.200000018" fill="#D8D8D8" cx="140" cy="69" r="1"></circle>
                    <circle id="Oval-2-Copy-4" fill="#D8D8D8" cx="172" cy="110" r="1"></circle>
                    <circle id="Oval-2-Copy-5" fill-opacity="0.200000018" fill="#D8D8D8" cx="114" cy="93" r="1"></circle>
                    <circle id="Oval-2-Copy-7" fill-opacity="0.200000018" fill="#D8D8D8" cx="223" cy="24" r="1"></circle>
                    <circle id="Oval-2-Copy-18" fill-opacity="0.200000018" fill="#D8D8D8" cx="192" cy="90" r="1"></circle>
                    <circle id="Oval-2-Copy-19" fill="#D8D8D8" cx="246" cy="121" r="1"></circle>
                    <circle id="Oval-2-Copy-20" fill="#D8D8D8" cx="270" cy="95" r="1"></circle>
                    <circle id="Oval-2-Copy-21" fill-opacity="0.200000018" fill="#D8D8D8" cx="231" cy="95" r="1"></circle>
                    <circle id="Oval-2-Copy-22" fill-opacity="0.200000018" fill="#D8D8D8" cx="251" cy="42" r="1"></circle>
                    <circle id="Oval-2-Copy-23" fill="#D8D8D8" cx="293" cy="20" r="1"></circle>
                    <circle id="Oval-2-Copy-24" fill="#D8D8D8" cx="322" cy="43" r="1"></circle>
                    <circle id="Oval-2-Copy-25" fill="#D8D8D8" opacity="0.200000018" cx="305" cy="39" r="1"></circle>
                    <circle id="Oval-2-Copy-27" fill-opacity="0.200000018" fill="#D8D8D8" cx="355" cy="24" r="1"></circle>
                    <circle id="Oval-2-Copy-28" fill="#D8D8D8" cx="379" cy="54" r="1"></circle>
                    <circle id="Oval-2-Copy-29" fill-opacity="0.200000018" fill="#D8D8D8" cx="402" cy="21" r="1"></circle>
                    <circle id="Oval-2-Copy-30" fill="#D8D8D8" cx="411" cy="110" r="1"></circle>
                    <circle id="Oval-2-Copy-31" fill="#D8D8D8" cx="363" cy="123" r="1"></circle>
                    <circle id="Oval-2-Copy-32" fill="#D8D8D8" cx="353" cy="100" r="1"></circle>
                    <circle id="Oval-2-Copy-33" fill="#D8D8D8" cx="411" cy="186" r="1"></circle>
                    <circle id="Oval-2-Copy-34" fill-opacity="0.200000018" fill="#D8D8D8" cx="371" cy="188" r="1"></circle>
                    <circle id="Oval-2-Copy-35" fill="#D8D8D8" opacity="0.100000001" cx="312" cy="121" r="1"></circle>
                    <circle id="Oval-2-Copy-36" fill="#D8D8D8" opacity="0.100000001" cx="310" cy="95" r="1"></circle>
                    <circle id="Oval-2-Copy-37" fill="#D8D8D8" cx="138" cy="211" r="1"></circle>
                    <circle id="Oval-2-Copy-38" fill-opacity="0.200000018" fill="#D8D8D8" cx="116" cy="172" r="1"></circle>
                    <circle id="Oval-2-Copy-39" fill-opacity="0.200000018" fill="#D8D8D8" cx="175" cy="184" r="1"></circle>
                    <circle id="Oval-2-Copy-26" fill="#D8D8D8" cx="332" cy="1" r="1"></circle>
                    <circle id="Oval-2-Copy-17" fill="#D8D8D8" cx="202" cy="11" r="1"></circle>
                </g>
            </g>
        </g>
    </g>
</svg>