<?xml version="1.0" encoding="UTF-8"?>
<svg width="22px" height="22px" viewBox="0 0 22 22" version="1.1" xmlns="http://www.w3.org/2000/svg" xmlns:xlink="http://www.w3.org/1999/xlink">
    <!-- Generator: Sketch 50.2 (55047) - http://www.bohemiancoding.com/sketch -->
    <title>Neuraboot-Assets-Icon-About</title>
    <desc>Created with Sketch.</desc>
    <defs></defs>
    <g id="Home" stroke="none" stroke-width="1" fill="none" fill-rule="evenodd">
        <g transform="translate(-19.000000, -534.000000)" id="Group-4">
            <g transform="translate(20.000000, 535.000000)">
                <g id="Group-2">
                    <g id="Neuraboot-Assets-Icon-About">
                        <path d="M9.99929412,0 C4.47717647,0 0,4.47717647 0,10 C0,15.5235294 4.47717647,20 9.99929412,20 C15.5225882,20 20,15.5235294 20,10 C20,4.47717647 15.5225882,0 9.99929412,0 Z" id="Shape" stroke="#FFFFFF" stroke-width="0.909090909" fill-rule="nonzero"></path>
                        <path d="M9.9967118,15.4545455 C9.41489362,15.4545455 9.09090909,15.0644984 9.09090909,14.5558476 C9.09090909,14.0335432 9.41489362,13.6363636 9.9967118,13.6363636 C10.5717602,13.6363636 10.9090909,14.0335432 10.9090909,14.5558476 C10.9090909,15.0644984 10.57853,15.4545455 9.9967118,15.4545455 Z M11.5225324,9.91330873 C10.9050087,10.4363494 10.7441952,11.0375036 10.735536,11.8181818 L8.81616545,11.8181818 C8.81616545,10.3424762 9.17985129,9.72579065 10.1944606,8.81241086 C10.9554794,8.13314317 11.5811675,7.62586222 11.5811675,6.72801377 C11.5811675,5.75228021 11.0487512,5.22124545 10.0336471,5.22124545 C9.23032198,5.22124545 8.41858508,5.62711589 8.41858508,6.62637485 L6.36363636,6.62637485 C6.38911911,4.66691368 7.97028661,3.63636364 10.0336471,3.63636364 C12.3082918,3.63636364 13.6363636,4.75279285 13.6363636,6.65766593 C13.636611,8.03972673 12.6049308,8.97640353 11.5225324,9.91330873 Z" id="Combined-Shape" fill="#FFFFFF"></path>
                    </g>
                </g>
            </g>
        </g>
    </g>
</svg>