<?xml version="1.0" encoding="UTF-8"?>
<svg width="90px" height="90px" viewBox="0 0 90 90" version="1.1" xmlns="http://www.w3.org/2000/svg" xmlns:xlink="http://www.w3.org/1999/xlink">
    <!-- Generator: Sketch 50.2 (55047) - http://www.bohemiancoding.com/sketch -->
    <title>Neuraboot-Assets-Achievements-Medal-2</title>
    <desc>Created with Sketch.</desc>
    <defs>
        <linearGradient x1="7.33863554%" y1="7.93876817%" x2="92.4343395%" y2="92.6444259%" id="linearGradient-1">
            <stop stop-color="#F4778F" offset="0%"></stop>
            <stop stop-color="#E44256" offset="100%"></stop>
        </linearGradient>
        <rect id="path-2" x="15.3302128" y="15.3302128" width="73.6482323" height="73.6482323" rx="18"></rect>
        <filter x="-2.0%" y="-2.0%" width="104.1%" height="104.1%" filterUnits="objectBoundingBox" id="filter-4">
            <feGaussianBlur stdDeviation="1.5" in="SourceAlpha" result="shadowBlurInner1"></feGaussianBlur>
            <feOffset dx="0" dy="0" in="shadowBlurInner1" result="shadowOffsetInner1"></feOffset>
            <feComposite in="shadowOffsetInner1" in2="SourceAlpha" operator="arithmetic" k2="-1" k3="1" result="shadowInnerInner1"></feComposite>
            <feColorMatrix values="0 0 0 0 1   0 0 0 0 1   0 0 0 0 1  0 0 0 0.5 0" type="matrix" in="shadowInnerInner1"></feColorMatrix>
        </filter>
        <rect id="path-5" x="17.3696879" y="17.3696879" width="69.5692821" height="69.5692821" rx="16"></rect>
        <linearGradient x1="86.4502423%" y1="7.05795344%" x2="44.6236298%" y2="81.3957068%" id="linearGradient-7">
            <stop stop-color="#F57181" offset="0%"></stop>
            <stop stop-color="#E44256" offset="100%"></stop>
        </linearGradient>
        <path d="M44.000509,30.9154785 C44.0001701,30.894817 44,30.874116 44,30.8533767 C44,28.7252155 45.790861,27 48,27 C49.936893,27 51.5522495,28.3261984 51.9209746,30.0874104 C51.9473153,30.0877697 51.9736575,30.0880642 52,30.0882922 C52.0262466,30.0885194 52.0524936,30.0886803 52.0787397,30.0887762 C52.4469154,28.3268841 54.0626064,27 56,27 C58.209139,27 60,28.7252155 60,30.8533767 C60,30.8746285 59.9998214,30.8958401 59.9994656,30.9170101 C59.9998215,30.9323272 60,30.9478144 60,30.9634732 C60,34.0929082 57.3841518,37.7717505 52.1524554,42 C46.7174851,37.9447797 44,34.2659375 44,30.9634732 C44,30.9473032 44.00017,30.9313055 44.000509,30.9154785 Z" id="path-8"></path>
        <filter x="-37.5%" y="-40.0%" width="175.0%" height="180.0%" filterUnits="objectBoundingBox" id="filter-9">
            <feOffset dx="0" dy="0" in="SourceAlpha" result="shadowOffsetOuter1"></feOffset>
            <feGaussianBlur stdDeviation="2" in="shadowOffsetOuter1" result="shadowBlurOuter1"></feGaussianBlur>
            <feColorMatrix values="0 0 0 0 1   0 0 0 0 1   0 0 0 0 1  0 0 0 0.5 0" type="matrix" in="shadowBlurOuter1"></feColorMatrix>
        </filter>
    </defs>
    <g id="My-Progress" stroke="none" stroke-width="1" fill="none" fill-rule="evenodd">
        <g id="FIll-My-Heart:-Step-4.0:-Achievements" transform="translate(-115.000000, -310.000000)">
            <g id="Neuraboot-Assets-Achievements-Medal-2" transform="translate(108.000000, 303.000000)">
                <g id="Rectangle-4">
                    <mask id="mask-3" fill="white">
                        <use xlink:href="#path-2"></use>
                    </mask>
                    <g id="Mask" transform="translate(52.154329, 52.154329) rotate(-315.000000) translate(-52.154329, -52.154329) ">
                        <use fill="url(#linearGradient-1)" fill-rule="evenodd" xlink:href="#path-2"></use>
                        <use fill="black" fill-opacity="1" filter="url(#filter-4)" xlink:href="#path-2"></use>
                    </g>
                    <mask id="mask-6" fill="white">
                        <use xlink:href="#path-5"></use>
                    </mask>
                    <use id="Mask-Copy" fill="#E44256" transform="translate(52.154329, 52.154329) rotate(-315.000000) translate(-52.154329, -52.154329) " xlink:href="#path-5"></use>
                    <path d="M-2.35779822,52.4529456 L69.6832174,52.4529456 C84.5949057,52.4529456 96.6832174,64.5412573 96.6832174,79.4529456 L96.6832174,106.452946 L-2.35779822,106.452946 L-2.35779822,52.4529456 Z" fill-opacity="0.300000012" fill="url(#linearGradient-7)" mask="url(#mask-6)" transform="translate(47.162710, 79.452946) rotate(-17.000000) translate(-47.162710, -79.452946) "></path>
                </g>
                <g id="Combined-Shape-Copy-9">
                    <use fill="black" fill-opacity="1" filter="url(#filter-9)" xlink:href="#path-8"></use>
                    <use fill="#FFFFFF" fill-rule="evenodd" xlink:href="#path-8"></use>
                </g>
                <text id="1" font-family="DINNextRoundedLTPro-Bold, DIN Next Rounded LT Pro" font-size="33.75" font-weight="bold" letter-spacing="1.40625" fill="#FFFFFF">
                    <tspan x="39.414375" y="81">1</tspan>
                </text>
                <text id="st" font-family="DINNextRoundedLTPro-Bold, DIN Next Rounded LT Pro" font-size="13.125" font-weight="bold" letter-spacing="0.546875" fill="#FFFFFF">
                    <tspan x="54.466875" y="66">st</tspan>
                </text>
                <path d="M44.5,50.5 L60.5312195,50.5" id="Line-8" stroke="#FFFFFF" stroke-linecap="square"></path>
            </g>
        </g>
    </g>
</svg>