<?xml version="1.0" encoding="utf-8"?>
<!-- Generator: Adobe Illustrator 16.0.0, SVG Export Plug-In . SVG Version: 6.00 Build 0)  -->
<!DOCTYPE svg PUBLIC "-//W3C//DTD SVG 1.1//EN" "http://www.w3.org/Graphics/SVG/1.1/DTD/svg11.dtd">
<svg version="1.1" id="Layer_1" xmlns="http://www.w3.org/2000/svg" xmlns:xlink="http://www.w3.org/1999/xlink" x="0px" y="0px"
	 width="90px" height="90px" viewBox="0 0 90 90" enable-background="new 0 0 90 90" xml:space="preserve">
<filter  height="180.0%" width="175.0%" id="filter-9" filterUnits="objectBoundingBox" y="-40.0%" x="-37.5%">
	<feOffset  dy="0" dx="0" result="shadowOffsetOuter1" in="SourceAlpha"></feOffset>
	<feGaussianBlur  result="shadowBlurOuter1" in="shadowOffsetOuter1" stdDeviation="2"></feGaussianBlur>
	<feColorMatrix  type="matrix" values="0 0 0 0 1   0 0 0 0 1   0 0 0 0 1  0 0 0 0.5 0" in="shadowBlurOuter1"></feColorMatrix>
</filter>
<filter  height="104.1%" width="104.1%" id="filter-4" filterUnits="objectBoundingBox" y="-2.0%" x="-2.0%">
	<feGaussianBlur  result="shadowBlurInner1" in="SourceAlpha" stdDeviation="1.5"></feGaussianBlur>
	<feOffset  dy="0" dx="0" result="shadowOffsetInner1" in="shadowBlurInner1"></feOffset>
	<feComposite  k3="1" k2="-1" operator="arithmetic" in2="SourceAlpha" result="shadowInnerInner1" in="shadowOffsetInner1">
		</feComposite>
	<feColorMatrix  type="matrix" values="0 0 0 0 1   0 0 0 0 1   0 0 0 0 1  0 0 0 0.5 0" in="shadowInnerInner1"></feColorMatrix>
</filter>
<g>
	<path id="path-2" fill="#FFFFFF" d="M26.33,8.33h37.648c9.941,0,18,8.059,18,18v37.648c0,9.941-8.059,18-18,18H26.33
		c-9.941,0-18-8.059-18-18V26.33C8.33,16.389,16.389,8.33,26.33,8.33z"/>
</g>
<title>Neuraboot-Assets-Achievements-Medal-2</title>
<desc>Created with Sketch.</desc>
<g id="My-Progress">
	<g id="FIll-My-Heart:-Step-4.0:-Achievements" transform="translate(-115.000000, -310.000000)">
		<g id="Neuraboot-Assets-Achievements-Medal-2" transform="translate(108.000000, 303.000000)">
			<g id="Rectangle-4" opacity="0.3">
				<g id="Mask" transform="translate(52.154329, 52.154329) rotate(-315.000000) translate(-52.154329, -52.154329) ">
					<g>
						<path id="path-2_1_" d="M33.331,15.33h37.648c9.941,0,18,8.06,18,18v37.648c0,9.941-8.059,18-18,18H33.331
							c-9.941,0-18-8.059-18-18l0-37.648C15.33,23.389,23.389,15.33,33.331,15.33z"/>
					</g>
					<g filter="url(#filter-4)">
						<path id="path-2_3_" d="M33.331,15.33h37.648c9.941,0,18,8.06,18,18v37.648c0,9.941-8.059,18-18,18H33.331
							c-9.941,0-18-8.059-18-18l0-37.648C15.33,23.389,23.389,15.33,33.331,15.33z"/>
					</g>
				</g>
				<g id="Mask-Copy" transform="translate(52.154329, 52.154329) rotate(-315.000000) translate(-52.154329, -52.154329) ">
					<path id="path-5_1_" d="M63.469,14.275l26.564,26.565c6.248,6.248,6.248,16.379,0,22.628L63.469,90.033
						c-6.249,6.248-16.38,6.248-22.628,0L14.275,63.469c-6.248-6.249-6.248-16.38,0-22.628l26.566-26.565
						C47.089,8.027,57.22,8.027,63.469,14.275z"/>
				</g>
				<defs>
					<filter id="Adobe_OpacityMaskFilter" filterUnits="userSpaceOnUse" x="-8.088" y="45.861" width="110.502" height="73.891">
						<feColorMatrix  type="matrix" values="1 0 0 0 0  0 1 0 0 0  0 0 1 0 0  0 0 0 1 0"/>
					</filter>
				</defs>
				<mask maskUnits="userSpaceOnUse" x="-8.088" y="45.861" width="110.502" height="73.891" id="mask-6">
					<g filter="url(#Adobe_OpacityMaskFilter)">
						<path id="path-5" fill="#FFFFFF" d="M33.37,17.37h37.57c8.836,0,16,7.164,16,16v37.57c0,8.836-7.164,16-16,16H33.37
							c-8.836,0-16-7.164-16-16V33.37C17.37,24.533,24.533,17.37,33.37,17.37z"/>
					</g>
				</mask>
				<path mask="url(#mask-6)" fill-opacity="0.3" d="M-8.088,68.111l68.893-21.063c14.261-4.36,29.355,3.666,33.715,17.926
					l7.895,25.82L7.7,119.752L-8.088,68.111z"/>
			</g>
			<g id="Combined-Shape-Copy-9" opacity="0.1">
				<g filter="url(#filter-9)">
					<path id="path-8_2_" d="M44,30.916c0-0.021,0-0.042,0-0.062C44,28.725,45.791,27,48,27c1.937,0,3.552,1.326,3.921,3.087
						c0.026,0,0.053,0,0.079,0.001c0.026,0,0.053,0,0.079,0C52.447,28.327,54.062,27,56,27c2.209,0,4,1.725,4,3.854
						c0,0.021,0,0.042,0,0.063c0,0.015,0,0.031,0,0.046c0,3.129-2.615,6.809-7.848,11.037C46.717,37.945,44,34.266,44,30.963
						C44,30.947,44,30.931,44,30.916z"/>
				</g>
				<g>
					<path id="path-8_1_" d="M44,30.916c0-0.021,0-0.042,0-0.062C44,28.725,45.791,27,48,27c1.937,0,3.552,1.326,3.921,3.087
						c0.026,0,0.053,0,0.079,0.001c0.026,0,0.053,0,0.079,0C52.447,28.327,54.062,27,56,27c2.209,0,4,1.725,4,3.854
						c0,0.021,0,0.042,0,0.063c0,0.015,0,0.031,0,0.046c0,3.129-2.615,6.809-7.848,11.037C46.717,37.945,44,34.266,44,30.963
						C44,30.947,44,30.931,44,30.916z"/>
				</g>
			</g>
			<text transform="matrix(1 0 0 1 39.4141 81)" font-family="'Arial-BoldMT'" font-size="33.75" letter-spacing="1">1</text>
			<text transform="matrix(1 0 0 1 54.4668 66)" font-family="'Arial-BoldMT'" font-size="13.125">st</text>
			<path id="Line-8" opacity="0.1" stroke="#FFFFFF" stroke-linecap="square" d="M44.5,50.5h16.031"/>
		</g>
	</g>
</g>
</svg>
